amy\fivek\Runner.class
amy\fivek\RunnerComparator.class
amy\fivek\servlets\RunnerFinishServlet.class
amy\fivek\servlets\AddRunnerServlet.class
amy\fivek\FiveK.class
amy\fivek\Const.class
amy\fivek\servlets\RedirectHomeServlet.class
amy\fivek\servlets\StartFiveKServlet.class
